id,first_name,last_name,email,gender,ip_address
1,Enrique,Bart,ebart0@hostgator.com,Male,110.25.98.137
2,Roana,Kloska,rkloska1@ted.com,Female,38.36.233.207
3,Valry,Rissom,vrissom2@delicious.com,Female,24.91.234.106
4,Charlie,Beedle,cbeedle3@apache.org,Male,149.72.33.204
5,Cortie,Mayler,cmayler4@odnoklassniki.ru,Male,251.221.230.109
6,Gerianne,Bigley,gbigley5@vkontakte.ru,Female,83.58.79.91
7,Amelina,Allingham,aallingham6@hibu.com,Female,192.186.162.189
8,Gregor,Clayworth,gclayworth7@hostgator.com,Male,88.62.158.162
9,Dav,Stelle,dstelle8@abc.net.au,Male,155.212.12.22
10,Gael,Georg,ggeorg9@clickbank.net,Male,20.242.198.150
11,Krisha,Allward,kallwarda@mayoclinic.com,Male,217.255.205.244
12,Aigneis,Arrighetti,aarrighettib@army.mil,Female,108.178.156.24
13,Michele,Bothe,mbothec@mail.ru,Male,166.98.170.193
14,Vicki,Smoote,vsmooted@cnn.com,Female,224.232.158.240
15,Katrine,Dickens,kdickense@istockphoto.com,Female,185.118.177.158
16,Xena,Gutsell,xgutsellf@issuu.com,Female,111.87.96.151
17,Claudette,Bendin,cbending@mapquest.com,Female,17.67.145.186
18,Vaughan,Benny,vbennyh@facebook.com,Male,204.58.205.184
19,Alvis,Hylands,ahylandsi@home.pl,Male,221.103.49.143
20,Emmey,Smellie,esmelliej@europa.eu,Female,71.223.138.238
21,Diego,Kmietsch,dkmietschk@skype.com,Male,150.217.110.0
22,Camel,Roddam,croddaml@google.de,Female,143.104.103.89
23,Dicky,Ashbee,dashbeem@delicious.com,Male,156.23.32.43
24,Christoper,Risbrough,crisbroughn@about.com,Male,194.175.172.73
25,Ezmeralda,Bryant,ebryanto@quantcast.com,Female,70.140.184.69
26,Adham,Josskovitz,ajosskovitzp@cnbc.com,Male,211.141.222.228
27,Freeland,Beevors,fbeevorsq@ow.ly,Male,137.176.4.234
28,Vincents,Adnett,vadnettr@jigsy.com,Male,81.219.154.144
29,Kellsie,Samples,ksampless@army.mil,Female,146.233.109.45
30,Joelie,Bernasek,jbernasekt@mozilla.com,Female,82.194.22.142
31,Shelley,Catanheira,scatanheirau@arstechnica.com,Female,147.159.219.146
32,Alyssa,Furby,afurbyv@fema.gov,Female,124.68.140.133
33,Kassi,Hartness,khartnessw@arizona.edu,Female,241.30.55.127
34,Wallie,Sloss,wslossx@histats.com,Male,50.80.238.18
35,Elvera,Calcraft,ecalcrafty@marketwatch.com,Female,145.246.69.106
36,Kelcie,Shiel,kshielz@ifeng.com,Female,88.92.199.202
37,Tabina,Bligh,tbligh10@geocities.jp,Female,129.71.177.129
38,Myrtie,Stefanovic,mstefanovic11@csmonitor.com,Female,182.208.143.166
39,Deina,Blowen,dblowen12@youku.com,Female,108.78.80.29
40,Brunhilda,Greaterex,bgreaterex13@rakuten.co.jp,Female,193.219.227.193
41,Aidan,Bickerstasse,abickerstasse14@1und1.de,Female,116.237.67.99
42,Evangelin,Thome,ethome15@mapquest.com,Female,105.184.168.141
43,Rae,Grindall,rgrindall16@addtoany.com,Female,38.80.149.252
44,Addie,Rand,arand17@lulu.com,Female,162.9.79.168
45,Thornton,Cubbino,tcubbino18@wufoo.com,Male,220.10.214.139
46,Emma,Lemme,elemme19@pcworld.com,Female,134.177.251.73
47,Wilhelmine,Chappell,wchappell1a@ca.gov,Female,151.147.196.49
48,Rhett,Harrowsmith,rharrowsmith1b@hud.gov,Male,254.59.163.19
49,Julissa,Wherrett,jwherrett1c@oaic.gov.au,Female,66.126.51.113
50,Annora,Woodbridge,awoodbridge1d@census.gov,Female,92.54.249.147
51,Justen,Castelli,jcastelli1e@tripod.com,Male,120.212.176.13
52,Lilith,Stubbes,lstubbes1f@alibaba.com,Female,143.89.62.179
53,Isidro,Benn,ibenn1g@dagondesign.com,Male,188.137.212.152
54,Mickie,Schrir,mschrir1h@msn.com,Female,223.112.185.228
55,Suki,Ingleson,singleson1i@51.la,Female,122.108.7.229
56,Doreen,Bleaden,dbleaden1j@java.com,Female,53.44.200.207
57,Welby,Smalles,wsmalles1k@nymag.com,Male,102.173.73.38
58,Ardisj,Haggas,ahaggas1l@feedburner.com,Female,95.159.77.154
59,Carly,Beckitt,cbeckitt1m@drupal.org,Male,209.71.69.85
60,Brew,Swancott,bswancott1n@gov.uk,Male,115.147.170.12
61,Muffin,Rudram,mrudram1o@cisco.com,Male,42.137.64.6
62,Celka,Bernlin,cbernlin1p@zimbio.com,Female,44.22.254.236
63,Verne,Maciocia,vmaciocia1q@google.es,Male,104.32.68.127
64,Rubie,Menlove,rmenlove1r@cbc.ca,Female,45.177.187.233
65,Abbot,Marunchak,amarunchak1s@youku.com,Male,148.125.73.229
66,Hanny,Casbourne,hcasbourne1t@narod.ru,Female,86.86.50.28
67,Emalee,Dekeyser,edekeyser1u@epa.gov,Female,60.25.57.192
68,Godard,Geaney,ggeaney1v@nymag.com,Male,45.148.132.191
69,Estel,Hewell,ehewell1w@163.com,Female,184.253.118.42
70,Ennis,Pretty,epretty1x@businesswire.com,Male,179.105.219.160
71,Teodoor,Mingaye,tmingaye1y@flickr.com,Male,221.201.81.20
72,Conn,Duesberry,cduesberry1z@fda.gov,Male,115.130.28.179
73,Cloris,Costain,ccostain20@godaddy.com,Female,235.200.24.200
74,Christie,Kalf,ckalf21@xing.com,Male,23.152.218.226
75,Domeniga,Simonnin,dsimonnin22@digg.com,Female,193.17.240.44
76,Melba,Howen,mhowen23@hud.gov,Female,0.12.22.152
77,Sharity,Este,seste24@ow.ly,Female,39.160.54.139
78,Fulton,Tipper,ftipper25@webs.com,Male,4.82.25.12
79,Otha,Lescop,olescop26@homestead.com,Female,64.41.237.54
80,Rupert,Gibb,rgibb27@cnbc.com,Male,191.86.175.202
81,Hannah,London,hlondon28@deviantart.com,Female,165.39.63.237
82,Gram,Logesdale,glogesdale29@smugmug.com,Male,31.84.203.88
83,Bryanty,Baniard,bbaniard2a@dedecms.com,Male,178.114.107.129
84,Sigismund,Trinke,strinke2b@histats.com,Male,254.237.52.79
85,Anatole,Gravener,agravener2c@census.gov,Male,20.59.200.114
86,Truda,Jarvie,tjarvie2d@shop-pro.jp,Female,236.66.239.208
87,Nil,Sword,nsword2e@dion.ne.jp,Male,91.60.136.179
88,Davis,Quest,dquest2f@japanpost.jp,Male,20.216.174.72
89,Jaclin,Dilke,jdilke2g@fema.gov,Female,114.120.115.242
90,Morlee,Thody,mthody2h@spotify.com,Male,119.15.213.120
91,Hodge,Caldayrou,hcaldayrou2i@friendfeed.com,Male,199.10.15.56
92,Corrie,Rothchild,crothchild2j@mapy.cz,Female,246.213.70.82
93,Cullen,Setter,csetter2k@flickr.com,Male,78.181.115.214
94,Noble,Troup,ntroup2l@imdb.com,Male,88.148.203.224
95,Valencia,McQuilliam,vmcquilliam2m@fda.gov,Female,179.168.162.159
96,Silvanus,Matias,smatias2n@google.es,Male,231.85.191.111
97,Irwin,Whitton,iwhitton2o@home.pl,Male,65.88.91.2
98,Maegan,Gremane,mgremane2p@harvard.edu,Female,82.148.3.45
99,Ulises,Salery,usalery2q@list-manage.com,Male,170.41.214.121
100,Wilton,Woodhams,wwoodhams2r@whitehouse.gov,Male,78.145.186.7
101,Davide,Gabotti,dgabotti2s@nationalgeographic.com,Male,173.21.32.205
102,Iolanthe,Splevings,isplevings2t@icq.com,Female,70.131.138.164
103,Roslyn,Ferenczy,rferenczy2u@usatoday.com,Female,81.43.134.107
104,Tiphanie,Mordon,tmordon2v@earthlink.net,Female,179.169.106.212
105,Leshia,Gascoyen,lgascoyen2w@over-blog.com,Female,140.51.212.102
106,Margie,Birkett,mbirkett2x@cocolog-nifty.com,Female,93.58.120.38
107,Web,Allflatt,wallflatt2y@ustream.tv,Male,193.166.253.231
108,Abramo,Corrigan,acorrigan2z@blogspot.com,Male,188.24.161.31
109,Phylis,O'Halloran,pohalloran30@jugem.jp,Female,199.4.48.105
110,Allx,Rockwill,arockwill31@infoseek.co.jp,Female,41.178.192.215
111,Dyan,Causton,dcauston32@intel.com,Female,175.214.31.85
112,Rosabelle,Drewes,rdrewes33@uol.com.br,Female,104.236.101.50
113,Vivianna,Yosevitz,vyosevitz34@intel.com,Female,176.48.191.27
114,Octavia,Reede,oreede35@themeforest.net,Female,14.247.170.226
115,Gareth,Hiscoe,ghiscoe36@theguardian.com,Male,29.78.148.157
116,Lynsey,Shipton,lshipton37@springer.com,Female,48.78.41.246
117,Sashenka,Brimble,sbrimble38@alibaba.com,Female,141.89.56.192
118,Gerhard,Folbige,gfolbige39@dot.gov,Male,196.102.232.185
119,Fae,Simenel,fsimenel3a@nymag.com,Female,230.119.97.9
120,Burg,Treweela,btreweela3b@cnet.com,Male,239.230.154.31
121,Rafe,Piche,rpiche3c@wikia.com,Male,53.234.41.12
122,Jean,Styan,jstyan3d@mtv.com,Male,226.60.218.26
123,Nessie,Gundry,ngundry3e@aboutads.info,Female,47.59.99.44
124,Leeland,Fancutt,lfancutt3f@cargocollective.com,Male,123.206.159.197
125,Scotty,Leyton,sleyton3g@sciencedirect.com,Male,133.37.87.196
126,Rocky,Devonport,rdevonport3h@bbb.org,Male,247.89.145.47
127,Amerigo,Dodgshun,adodgshun3i@hhs.gov,Male,76.166.87.190
128,Aloin,Bustin,abustin3j@nasa.gov,Male,127.228.220.52
129,Daniella,Iacovaccio,diacovaccio3k@360.cn,Female,253.137.224.245
130,Arabela,Darke,adarke3l@about.com,Female,154.87.200.180
131,Durward,Ringer,dringer3m@tripod.com,Male,230.67.125.12
132,Truman,Bocken,tbocken3n@bigcartel.com,Male,81.122.22.93
133,Rickey,Le Grove,rlegrove3o@irs.gov,Male,155.219.237.51
134,Cordula,Willisch,cwillisch3p@technorati.com,Female,36.188.185.145
135,Dieter,Mucklo,dmucklo3q@nps.gov,Male,201.250.222.219
136,Ernie,Sedgemore,esedgemore3r@cbsnews.com,Male,217.119.153.191
137,Piper,Zellick,pzellick3s@usda.gov,Female,88.1.16.54
138,Rhodie,Richardsson,rrichardsson3t@nih.gov,Female,42.151.157.255
139,Livy,Verity,lverity3u@nps.gov,Female,25.212.187.190
140,Lou,Branford,lbranford3v@uol.com.br,Male,36.143.195.173
141,Hazlett,Fairfoot,hfairfoot3w@blogs.com,Male,145.157.203.166
142,Fanny,Izachik,fizachik3x@liveinternet.ru,Female,194.139.37.172
143,Natty,Martensen,nmartensen3y@wp.com,Male,69.108.159.104
144,Leeann,Degli Antoni,ldegliantoni3z@omniture.com,Female,225.216.210.98
145,Jens,Beirne,jbeirne40@plala.or.jp,Male,203.213.215.115
146,Betty,Hedgecock,bhedgecock41@themeforest.net,Female,210.59.82.63
147,Erskine,McCraw,emccraw42@wisc.edu,Male,181.207.240.38
148,Court,Ducker,cducker43@vk.com,Male,1.76.94.204
149,Odelinda,Casella,ocasella44@nih.gov,Female,108.200.170.232
150,Hatty,Lafee,hlafee45@mashable.com,Female,254.63.114.27
151,Giffie,Bratton,gbratton46@wunderground.com,Male,106.50.122.51
152,Golda,Houltham,ghoultham47@plala.or.jp,Female,162.79.72.91
153,Quintus,Kuhnke,qkuhnke48@sogou.com,Male,10.50.252.188
154,D'arcy,Gittens,dgittens49@toplist.cz,Male,207.239.220.72
155,Freddie,Perrett,fperrett4a@free.fr,Female,67.133.127.17
156,Isaiah,Trengove,itrengove4b@bluehost.com,Male,123.179.170.8
157,Lorene,Luton,lluton4c@state.tx.us,Female,252.146.49.107
158,Karney,Woffenden,kwoffenden4d@rakuten.co.jp,Male,88.177.186.120
159,Edna,Guillet,eguillet4e@godaddy.com,Female,11.43.255.244
160,Lynna,Offill,loffill4f@soup.io,Female,56.227.177.153
161,Lawton,Kikke,lkikke4g@shareasale.com,Male,101.205.41.12
162,Winnie,Trenouth,wtrenouth4h@ucsd.edu,Male,163.92.45.118
163,Billi,Bloxsom,bbloxsom4i@gizmodo.com,Female,16.9.221.245
164,Minny,Merrgen,mmerrgen4j@goo.gl,Female,174.244.165.250
165,Kaitlynn,Vearnals,kvearnals4k@goodreads.com,Female,27.131.230.238
166,Freddie,Pengilley,fpengilley4l@stumbleupon.com,Male,128.85.16.36
167,Patricia,Cheson,pcheson4m@toplist.cz,Female,219.160.176.106
168,Roberta,Poznanski,rpoznanski4n@biglobe.ne.jp,Female,132.107.237.53
169,Duff,Palay,dpalay4o@upenn.edu,Male,125.88.76.64
170,Hirsch,Ferber,hferber4p@addtoany.com,Male,227.62.254.170
171,Carry,Drinkel,cdrinkel4q@mozilla.com,Female,236.49.150.17
172,Godwin,Van Oort,gvanoort4r@diigo.com,Male,39.4.170.83
173,Carri,Borrow,cborrow4s@mozilla.org,Female,123.170.112.2
174,Brnaby,Soitoux,bsoitoux4t@aol.com,Male,188.3.80.201
175,Cobby,Donlon,cdonlon4u@reverbnation.com,Male,46.242.88.161
176,Oswald,Turfes,oturfes4v@yellowpages.com,Male,108.38.120.201
177,Granger,Bearsmore,gbearsmore4w@paypal.com,Male,89.214.6.38
178,Barbie,Ginty,bginty4x@yahoo.com,Female,183.119.51.231
179,Ogdon,Dailey,odailey4y@issuu.com,Male,48.203.67.22
180,Fidelio,Ault,fault4z@ted.com,Male,94.180.118.20
181,Brittani,Stavers,bstavers50@ameblo.jp,Female,21.171.127.165
182,Bradley,Duffy,bduffy51@kickstarter.com,Male,224.244.123.133
183,Kingsley,Evitt,kevitt52@liveinternet.ru,Male,247.151.145.215
184,Becca,Sheal,bsheal53@latimes.com,Female,124.81.63.240
185,Gilli,Sends,gsends54@photobucket.com,Female,171.186.207.23
186,Harlene,Usher,husher55@ucoz.com,Female,155.217.242.243
187,Cassi,Ambage,cambage56@umn.edu,Female,55.19.9.143
188,Heddi,Murfill,hmurfill57@yahoo.com,Female,21.146.221.57
189,Massimiliano,Caulwell,mcaulwell58@soup.io,Male,17.248.108.228
190,Dew,Silburn,dsilburn59@spotify.com,Male,82.30.168.6
191,Tammi,Fairebrother,tfairebrother5a@mlb.com,Female,10.185.241.122
192,Dulcinea,Scholes,dscholes5b@slideshare.net,Female,120.196.44.216
193,Sigismondo,Livings,slivings5c@pagesperso-orange.fr,Male,128.170.162.114
194,Donia,Mellem,dmellem5d@google.com,Female,58.194.180.239
195,Tobit,Haglington,thaglington5e@uol.com.br,Male,216.87.133.53
196,Lorie,Lowndsbrough,llowndsbrough5f@webs.com,Female,216.213.113.254
197,Rooney,Pimmocke,rpimmocke5g@istockphoto.com,Male,35.190.255.190
198,Dolley,Heggman,dheggman5h@cdc.gov,Female,68.35.102.76
199,Estrellita,Totman,etotman5i@ow.ly,Female,40.171.222.101
200,Toma,Slayford,tslayford5j@paginegialle.it,Female,114.149.150.28
201,Dewie,Haselup,dhaselup5k@virginia.edu,Male,47.48.54.40
202,Nikolaos,Eddleston,neddleston5l@wikispaces.com,Male,27.0.42.232
203,Alvie,Fridaye,afridaye5m@sourceforge.net,Male,35.152.142.1
204,Viviana,Staddon,vstaddon5n@youtube.com,Female,118.180.168.78
205,Omero,Anney,oanney5o@angelfire.com,Male,25.153.188.138
206,Cristian,Tweedlie,ctweedlie5p@elegantthemes.com,Male,193.94.90.15
207,Fonzie,Swaby,fswaby5q@independent.co.uk,Male,118.100.25.253
208,Esteban,Viall,eviall5r@jimdo.com,Male,90.101.100.94
209,Cristie,Finkle,cfinkle5s@elegantthemes.com,Female,82.173.151.88
210,Mile,Pantridge,mpantridge5t@behance.net,Male,37.86.155.216
211,Anjela,Nurny,anurny5u@macromedia.com,Female,102.96.96.162
212,Melony,Barosch,mbarosch5v@twitter.com,Female,84.136.64.98
213,Erek,Sommers,esommers5w@nationalgeographic.com,Male,138.130.172.158
214,Monro,Dunmuir,mdunmuir5x@example.com,Male,29.243.49.44
215,Warner,Mardy,wmardy5y@com.com,Male,2.150.179.109
216,Dalton,Windibank,dwindibank5z@com.com,Male,15.27.212.127
217,Derrik,Galilee,dgalilee60@nhs.uk,Male,187.252.156.40
218,Shanon,Anetts,sanetts61@salon.com,Female,252.21.28.167
219,Meredith,Scotfurth,mscotfurth62@360.cn,Male,123.124.128.136
220,Tadeas,Shrubb,tshrubb63@pen.io,Male,206.4.174.54
221,Carita,Crankshaw,ccrankshaw64@youtu.be,Female,139.240.106.99
222,Norbie,Dewdney,ndewdney65@google.com.hk,Male,155.227.126.7
223,Marcy,Pietrzak,mpietrzak66@state.tx.us,Female,41.220.32.158
224,Raphaela,Maltster,rmaltster67@guardian.co.uk,Female,162.79.218.13
225,Sena,Binns,sbinns68@nature.com,Female,154.176.89.255
226,Frankie,Deehan,fdeehan69@google.com.hk,Male,154.138.86.138
227,Towney,Tivenan,ttivenan6a@toplist.cz,Male,86.149.99.137
228,Elsa,Godwyn,egodwyn6b@networksolutions.com,Female,74.71.180.104
229,Rickert,Carwardine,rcarwardine6c@over-blog.com,Male,172.145.96.41
230,Byrom,Harlowe,bharlowe6d@weibo.com,Male,131.231.144.101
231,Cob,Bartolic,cbartolic6e@exblog.jp,Male,123.130.5.192
232,Clerc,Beedle,cbeedle6f@qq.com,Male,209.109.208.226
233,Evania,Longbothom,elongbothom6g@mediafire.com,Female,176.7.214.66
234,Harland,Hatton,hhatton6h@blog.com,Male,173.133.244.144
235,Lyon,Eagers,leagers6i@friendfeed.com,Male,141.144.146.56
236,Hilliary,Danell,hdanell6j@i2i.jp,Female,181.224.88.201
237,Noble,McOrkil,nmcorkil6k@flavors.me,Male,32.90.247.235
238,Beverlie,Sirett,bsirett6l@buzzfeed.com,Female,91.178.37.116
239,Brinn,Dubbin,bdubbin6m@yellowpages.com,Female,204.69.53.54
240,Colin,Ricca,cricca6n@yandex.ru,Male,88.48.109.169
241,Gaspar,Tuffield,gtuffield6o@stumbleupon.com,Male,253.131.71.58
242,Fremont,Kimmings,fkimmings6p@intel.com,Male,39.73.6.149
243,Bartel,Arington,barington6q@printfriendly.com,Male,70.24.18.118
244,Keary,Lessmare,klessmare6r@chronoengine.com,Male,58.136.191.200
245,Jonathon,Bradborne,jbradborne6s@technorati.com,Male,252.188.56.76
246,Catlee,Dericot,cdericot6t@aol.com,Female,34.178.223.147
247,Teresa,Vogl,tvogl6u@bbb.org,Female,32.146.61.36
248,Aggie,Tredget,atredget6v@dailymotion.com,Female,83.201.33.128
249,Harmonia,Ashdown,hashdown6w@1688.com,Female,18.201.128.64
250,Cale,Prinne,cprinne6x@yelp.com,Male,252.138.16.200
251,Raff,Artingstall,rartingstall6y@photobucket.com,Male,41.62.28.199
252,Lynnett,Jost,ljost6z@last.fm,Female,220.162.196.77
253,Bertie,Bringloe,bbringloe70@icio.us,Male,11.121.226.85
254,Haleigh,Boycott,hboycott71@mit.edu,Female,117.210.135.148
255,Vonnie,Braddock,vbraddock72@youtube.com,Female,23.182.89.25
256,Henriette,Sherrin,hsherrin73@goo.gl,Female,182.254.184.91
257,Roda,Disdel,rdisdel74@theatlantic.com,Female,68.237.3.236
258,Barb,McLellan,bmclellan75@live.com,Female,190.235.221.86
259,Boycey,Lindenstrauss,blindenstrauss76@omniture.com,Male,30.244.118.86
260,Roland,Scarsbrooke,rscarsbrooke77@joomla.org,Male,12.104.133.137
261,Simonette,Beese,sbeese78@imdb.com,Female,145.127.133.51
262,Milt,Giblett,mgiblett79@tinyurl.com,Male,197.34.124.24
263,Weston,Hacquoil,whacquoil7a@geocities.jp,Male,232.134.128.116
264,Forrester,Hunnisett,fhunnisett7b@usnews.com,Male,198.23.98.22
265,Dehlia,Horsey,dhorsey7c@geocities.jp,Female,73.225.24.172
266,Abrahan,Hawtin,ahawtin7d@house.gov,Male,13.235.218.81
267,Leupold,Rigmond,lrigmond7e@istockphoto.com,Male,160.2.47.212
268,Dre,Moniker,dmoniker7f@nydailynews.com,Female,18.141.226.247
269,Murielle,Glasper,mglasper7g@people.com.cn,Female,98.146.101.30
270,Corina,Lascelles,clascelles7h@businessinsider.com,Female,218.130.108.44
271,Aldon,Penhale,apenhale7i@biblegateway.com,Male,71.163.45.123
272,Sibella,Sign,ssign7j@woothemes.com,Female,134.177.218.62
273,Debbie,Bote,dbote7k@globo.com,Female,84.145.199.182
274,Elena,Leopold,eleopold7l@pinterest.com,Female,81.159.250.86
275,Jesselyn,Defries,jdefries7m@dagondesign.com,Female,148.167.196.7
276,Leonerd,Baudinelli,lbaudinelli7n@globo.com,Male,80.235.47.111
277,Jocelin,MacMorland,jmacmorland7o@liveinternet.ru,Female,80.109.152.222
278,Ody,Bilbery,obilbery7p@msn.com,Male,50.133.213.203
279,Harp,Coils,hcoils7q@purevolume.com,Male,191.93.246.152
280,Yvonne,O'Sharry,yosharry7r@github.io,Female,248.77.108.17
281,Nolan,Brome,nbrome7s@devhub.com,Male,82.56.63.230
282,Giacobo,Mitrovic,gmitrovic7t@cmu.edu,Male,87.103.94.158
283,Washington,Mazey,wmazey7u@who.int,Male,248.15.4.168
284,Waldemar,Pether,wpether7v@paginegialle.it,Male,150.197.40.51
285,Biron,Ledwitch,bledwitch7w@yahoo.com,Male,131.91.79.144
286,Clerkclaude,Dumphrey,cdumphrey7x@mtv.com,Male,137.218.247.130
287,Irving,Winsley,iwinsley7y@irs.gov,Male,155.101.77.139
288,Wylie,Strettell,wstrettell7z@shinystat.com,Male,59.120.32.84
289,Morgun,Tallquist,mtallquist80@google.ca,Male,101.22.76.203
290,Guillemette,Belf,gbelf81@dailymail.co.uk,Female,161.154.42.6
291,Cazzie,McClymond,cmcclymond82@etsy.com,Male,48.96.172.95
292,Steffen,Maccrie,smaccrie83@cisco.com,Male,112.196.184.218
293,Esma,Broadway,ebroadway84@livejournal.com,Female,64.124.221.86
294,Barris,Tissell,btissell85@lycos.com,Male,45.55.229.159
295,Gasparo,Krauss,gkrauss86@cbslocal.com,Male,143.187.230.132
296,Adella,Chaplin,achaplin87@dell.com,Female,122.24.193.87
297,Rori,Haliburn,rhaliburn88@51.la,Female,125.45.108.50
298,Carilyn,Longrigg,clongrigg89@dion.ne.jp,Female,156.75.100.229
299,Susan,Parman,sparman8a@state.gov,Female,225.112.69.24
300,Luciano,Phetteplace,lphetteplace8b@prweb.com,Male,225.30.39.232
301,Lydia,Bowdidge,lbowdidge8c@abc.net.au,Female,18.40.76.40
302,Dinny,McGarvey,dmcgarvey8d@dropbox.com,Female,34.146.13.71
303,Marti,Tredget,mtredget8e@tinyurl.com,Female,12.211.27.72
304,Adara,Strawbridge,astrawbridge8f@xinhuanet.com,Female,172.151.191.145
305,Bria,Tipping,btipping8g@reuters.com,Female,227.143.144.92
306,Jonah,Hambly,jhambly8h@de.vu,Male,0.254.184.65
307,Debby,Whittier,dwhittier8i@gnu.org,Female,44.131.31.161
308,Sashenka,Esslement,sesslement8j@slashdot.org,Female,52.130.224.86
309,Thor,Alphege,talphege8k@google.co.uk,Male,54.207.48.69
310,Gerti,Naptine,gnaptine8l@blog.com,Female,52.227.116.182
311,Corabel,Colkett,ccolkett8m@xrea.com,Female,157.106.24.143
312,Findlay,Lutwyche,flutwyche8n@bloomberg.com,Male,209.179.227.177
313,Mellisa,Pulster,mpulster8o@time.com,Female,236.162.29.254
314,Ricard,Wilkie,rwilkie8p@washington.edu,Male,71.23.49.87
315,Hollyanne,Cotty,hcotty8q@newyorker.com,Female,243.5.7.254
316,Nellie,Birk,nbirk8r@tiny.cc,Female,60.94.152.220
317,Wandie,Saurat,wsaurat8s@guardian.co.uk,Female,8.63.171.106
318,Ives,Gascard,igascard8t@sourceforge.net,Male,32.229.154.49
319,Karim,Ferby,kferby8u@gravatar.com,Male,229.148.126.194
320,Remy,Collip,rcollip8v@gnu.org,Female,119.115.20.25
321,Kelcie,Russon,krusson8w@msu.edu,Female,255.218.2.156
322,Aurelie,Cloy,acloy8x@yellowbook.com,Female,254.149.163.169
323,Dallas,Mapowder,dmapowder8y@virginia.edu,Female,61.113.130.113
324,Rubi,Marlor,rmarlor8z@irs.gov,Female,27.22.13.158
325,Drugi,Caseri,dcaseri90@aboutads.info,Male,178.141.221.175
326,Jeannie,Faltskog,jfaltskog91@nba.com,Female,205.138.56.103
327,Sybila,Jaquemar,sjaquemar92@salon.com,Female,152.98.207.44
328,Petra,Habens,phabens93@apache.org,Female,4.25.98.124
329,Violante,Diack,vdiack94@sfgate.com,Female,159.241.28.171
330,Trumaine,Gribbin,tgribbin95@arstechnica.com,Male,55.169.233.6
331,Osborne,Barrabeale,obarrabeale96@state.gov,Male,191.85.195.234
332,Rodge,Bassindale,rbassindale97@nbcnews.com,Male,211.118.178.163
333,Hermia,Asling,hasling98@prnewswire.com,Female,61.150.42.2
334,Aurthur,Gilliam,agilliam99@ox.ac.uk,Male,109.57.130.207
335,Teddi,Stubbings,tstubbings9a@artisteer.com,Female,145.152.254.62
336,Chance,Lau,clau9b@hugedomains.com,Male,215.220.176.53
337,Seumas,Jakubovsky,sjakubovsky9c@upenn.edu,Male,10.119.43.228
338,Park,Capper,pcapper9d@prnewswire.com,Male,3.207.125.166
339,Parker,Rosendahl,prosendahl9e@usgs.gov,Male,142.213.195.43
340,Sib,Glassopp,sglassopp9f@baidu.com,Female,175.3.45.186
341,Rochester,Blyden,rblyden9g@umn.edu,Male,173.68.164.157
342,Felicity,Paver,fpaver9h@storify.com,Female,190.127.227.87
343,Thorndike,Whatford,twhatford9i@de.vu,Male,175.240.252.11
344,Karlik,Yo,kyo9j@webnode.com,Male,124.228.150.181
345,Ingamar,Hildred,ihildred9k@abc.net.au,Male,105.31.175.155
346,Angeline,Aimson,aaimson9l@bloglovin.com,Female,185.147.18.146
347,Barb,Arkwright,barkwright9m@slate.com,Female,52.118.244.183
348,Floria,Millar,fmillar9n@cafepress.com,Female,51.81.113.17
349,Cathryn,Humburton,chumburton9o@nba.com,Female,53.197.93.198
350,Coretta,Betho,cbetho9p@google.es,Female,245.87.51.115
351,Glyn,Fellona,gfellona9q@prweb.com,Male,141.55.75.20
352,Steffen,Stille,sstille9r@constantcontact.com,Male,159.207.7.20
353,Lesli,Wigmore,lwigmore9s@reference.com,Female,173.233.204.249
354,Frannie,Manjot,fmanjot9t@statcounter.com,Female,164.55.199.246
355,Base,Victoria,bvictoria9u@joomla.org,Male,183.120.56.136
356,Gav,Okenfold,gokenfold9v@printfriendly.com,Male,71.53.71.222
357,Olwen,Bendson,obendson9w@ca.gov,Female,168.204.228.31
358,Stephan,Coleborn,scoleborn9x@chicagotribune.com,Male,69.224.14.110
359,Madelon,Brown,mbrown9y@cyberchimps.com,Female,242.94.238.78
360,Artemas,Yacobsohn,ayacobsohn9z@indiatimes.com,Male,12.30.44.99
361,Georg,Demageard,gdemagearda0@xing.com,Male,210.131.245.228
362,Kathlin,Bloodworth,kbloodwortha1@wix.com,Female,240.116.91.194
363,Ericha,Schermick,eschermicka2@1und1.de,Female,219.184.116.130
364,Drucill,Caneo,dcaneoa3@theguardian.com,Female,164.20.165.80
365,Kaila,Darby,kdarbya4@exblog.jp,Female,31.135.102.93
366,Antons,Scini,ascinia5@printfriendly.com,Male,111.64.203.227
367,Benedict,Sanham,bsanhama6@comsenz.com,Male,55.83.166.122
368,Dallas,Valentinetti,dvalentinettia7@java.com,Female,51.205.146.180
369,Kalil,Records,krecordsa8@parallels.com,Male,76.205.193.120
370,Gerek,Steketee,gsteketeea9@cnbc.com,Male,246.53.178.220
371,Tad,Sarch,tsarchaa@lycos.com,Male,174.235.83.229
372,Leonore,Sullly,lsulllyab@netscape.com,Female,163.122.132.69
373,Jarred,Palfreman,jpalfremanac@joomla.org,Male,166.252.96.175
374,Benjie,Muselli,bmuselliad@sourceforge.net,Male,80.82.170.5
375,Eugen,Cummine,ecummineae@dropbox.com,Male,60.194.77.92
376,Thomasine,Bentinck,tbentinckaf@altervista.org,Female,89.96.28.9
377,Abbott,Stanmore,astanmoreag@si.edu,Male,167.184.234.158
378,Huey,Sweetman,hsweetmanah@state.tx.us,Male,142.150.123.66
379,Hersh,Brimacombe,hbrimacombeai@webmd.com,Male,102.130.213.56
380,Arte,Ahmed,aahmedaj@jimdo.com,Male,34.243.140.137
381,Lynna,Bellefonte,lbellefonteak@xinhuanet.com,Female,229.15.113.100
382,Rachelle,Botwright,rbotwrightal@etsy.com,Female,231.202.34.158
383,Bryn,Farnall,bfarnallam@squidoo.com,Male,169.62.59.0
384,Kurtis,Tanswill,ktanswillan@domainmarket.com,Male,59.107.193.173
385,Kat,Sprason,ksprasonao@reddit.com,Female,67.218.223.177
386,Cori,Wallbridge,cwallbridgeap@paypal.com,Female,29.181.11.166
387,Adamo,Wimbush,awimbushaq@indiatimes.com,Male,4.223.134.14
388,Clayborn,Belmont,cbelmontar@who.int,Male,0.182.219.174
389,Zollie,O'Caine,zocaineas@xrea.com,Male,122.244.12.186
390,Axel,Orbon,aorbonat@mozilla.org,Male,83.37.63.225
391,Regan,Voelker,rvoelkerau@mail.ru,Female,34.105.83.70
392,Kelvin,Vicker,kvickerav@blog.com,Male,178.72.184.26
393,Kevin,Standidge,kstandidgeaw@weibo.com,Male,8.169.129.65
394,Patience,Crimes,pcrimesax@ycombinator.com,Female,200.152.43.241
395,Flynn,Abdey,fabdeyay@uol.com.br,Male,107.135.74.160
396,Dennie,Enderlein,denderleinaz@census.gov,Male,100.216.141.154
397,Halsy,Blakeney,hblakeneyb0@1und1.de,Male,144.100.178.176
398,Lorenza,Unthank,lunthankb1@bloomberg.com,Female,151.108.227.59
399,Thurstan,Spitell,tspitellb2@macromedia.com,Male,115.196.138.159
400,Osmund,Stonham,ostonhamb3@deliciousdays.com,Male,220.123.248.142
401,Bridget,Hambelton,bhambeltonb4@feedburner.com,Female,59.140.205.13
402,Davidde,Size,dsizeb5@paginegialle.it,Male,229.123.46.111
403,Clotilda,Nowell,cnowellb6@tripod.com,Female,141.142.214.89
404,Jonathan,Burridge,jburridgeb7@reuters.com,Male,52.0.171.121
405,Bree,Skate,bskateb8@wikispaces.com,Female,135.131.100.61
406,Samson,Backsal,sbacksalb9@nature.com,Male,230.235.182.20
407,Sidnee,Buckett,sbuckettba@e-recht24.de,Male,75.94.159.100
408,Ernest,Garthland,egarthlandbb@stanford.edu,Male,13.33.144.145
409,Lucienne,Moule,lmoulebc@psu.edu,Female,44.12.253.217
410,Barrett,Thurnham,bthurnhambd@com.com,Male,200.162.6.27
411,Bryon,Lepope,blepopebe@zdnet.com,Male,79.219.205.225
412,Sibyl,Braikenridge,sbraikenridgebf@nba.com,Male,26.120.50.48
413,Denny,Cogdell,dcogdellbg@google.co.jp,Male,111.248.19.101
414,York,Spowart,yspowartbh@indiegogo.com,Male,23.235.5.65
415,Craig,Reynish,creynishbi@dropbox.com,Male,240.145.251.165
416,Wynne,Cutbirth,wcutbirthbj@xinhuanet.com,Female,64.47.226.7
417,Hanan,Girardetti,hgirardettibk@smugmug.com,Male,205.102.11.123
418,Denys,Sarrell,dsarrellbl@reuters.com,Male,95.175.231.191
419,Jimmie,Matic,jmaticbm@nyu.edu,Male,205.189.109.177
420,Hamid,Stayt,hstaytbn@mozilla.org,Male,204.43.91.110
421,Karol,Saye,ksayebo@mapquest.com,Female,137.209.147.134
422,Ardeen,Sharpin,asharpinbp@state.tx.us,Female,66.188.158.18
423,Annabel,Quaif,aquaifbq@is.gd,Female,5.207.95.34
424,Guss,Kovnot,gkovnotbr@arizona.edu,Male,100.114.5.187
425,Andrei,Arkow,aarkowbs@theatlantic.com,Female,4.61.241.71
426,Donal,Habershon,dhabershonbt@adobe.com,Male,214.122.159.77
427,Camey,Villaret,cvillaretbu@blogger.com,Male,244.60.129.151
428,Blondelle,Bockin,bbockinbv@kickstarter.com,Female,210.255.189.106
429,Tore,Burel,tburelbw@fema.gov,Male,149.154.196.1
430,Laughton,Thompkins,lthompkinsbx@imageshack.us,Male,71.82.187.11
431,Jeniece,Lukasik,jlukasikby@amazonaws.com,Female,175.28.195.98
432,Sayer,Frise,sfrisebz@ehow.com,Male,18.113.127.123
433,Nolan,Slewcock,nslewcockc0@constantcontact.com,Male,195.142.136.230
434,Gregorio,Mucci,gmuccic1@ustream.tv,Male,186.139.1.235
435,Stafford,Masham,smashamc2@wired.com,Male,91.10.170.174
436,Roscoe,Walsh,rwalshc3@goo.ne.jp,Male,33.114.109.196
437,Penny,Chattington,pchattingtonc4@cisco.com,Male,1.183.170.56
438,Ann-marie,Rait,araitc5@omniture.com,Female,148.140.12.117
439,Cassy,Ruckhard,cruckhardc6@reverbnation.com,Female,127.74.51.154
440,Bev,Latan,blatanc7@nyu.edu,Male,5.16.140.94
441,Hyacintha,Neeves,hneevesc8@tinyurl.com,Female,217.216.67.235
442,Meredeth,Krause,mkrausec9@tumblr.com,Male,63.7.148.176
443,Ives,Force,iforceca@bloglines.com,Male,211.88.62.164
444,Vevay,Blease,vbleasecb@npr.org,Female,220.76.33.243
445,Xaviera,Roloff,xroloffcc@japanpost.jp,Female,207.88.196.0
446,Suzann,Chrisp,schrispcd@smh.com.au,Female,203.215.163.52
447,Jelene,Gentile,jgentilece@tiny.cc,Female,40.52.79.167
448,Bat,Scholtis,bscholtiscf@webnode.com,Male,46.159.119.78
449,Yoshi,Delacourt,ydelacourtcg@google.nl,Female,204.44.31.112
450,Nikolaos,Witherow,nwitherowch@businessinsider.com,Male,165.133.229.25
451,Dolf,Ledger,dledgerci@ca.gov,Male,216.237.159.33
452,Juline,Quennell,jquennellcj@foxnews.com,Female,194.106.124.34
453,Neil,Selcraig,nselcraigck@ihg.com,Male,80.0.66.72
454,Rafael,Lentsch,rlentschcl@senate.gov,Male,118.164.20.42
455,Cesare,Hardistry,chardistrycm@google.ca,Male,166.218.84.178
456,Wye,Botger,wbotgercn@e-recht24.de,Male,65.76.197.253
457,Shep,Yoslowitz,syoslowitzco@umn.edu,Male,85.146.226.83
458,Averil,Ferrero,aferrerocp@addthis.com,Female,167.228.228.49
459,Alaric,Rosson,arossoncq@go.com,Male,248.147.242.212
460,Marquita,Croke,mcrokecr@umn.edu,Female,231.151.115.252
461,Hammad,Cheese,hcheesecs@lycos.com,Male,160.161.5.173
462,Belvia,Soff,bsoffct@rambler.ru,Female,253.81.249.156
463,Willdon,Rizzardo,wrizzardocu@nature.com,Male,230.177.40.48
464,Eugenius,Pulster,epulstercv@gmpg.org,Male,211.15.103.61
465,Anetta,Hartfield,ahartfieldcw@epa.gov,Female,176.123.42.132
466,Charles,Frank,cfrankcx@buzzfeed.com,Male,160.238.55.212
467,Ben,Cheetam,bcheetamcy@sourceforge.net,Male,114.118.33.49
468,Cooper,Bettaney,cbettaneycz@nifty.com,Male,90.34.186.201
469,Melita,Retter,mretterd0@themeforest.net,Female,93.251.120.106
470,Rosana,Carley,rcarleyd1@army.mil,Female,37.223.146.5
471,Tanney,Humpherston,thumpherstond2@edublogs.org,Male,168.253.49.48
472,Broddy,Seagood,bseagoodd3@engadget.com,Male,120.124.173.54
473,Dagny,Caghy,dcaghyd4@prlog.org,Male,237.8.112.18
474,Billi,Nethercott,bnethercottd5@weather.com,Female,75.28.199.223
475,Konstantin,Bilbrook,kbilbrookd6@xinhuanet.com,Male,57.238.146.254
476,Lidia,Duguid,lduguidd7@uiuc.edu,Female,186.101.7.37
477,Meade,Kennon,mkennond8@cafepress.com,Female,159.211.1.14
478,Jarret,Buxsey,jbuxseyd9@t-online.de,Male,37.41.108.18
479,Rosemaria,Will,rwillda@joomla.org,Female,254.116.173.17
480,Amity,Whear,awheardb@deliciousdays.com,Female,38.218.112.208
481,Mable,Damper,mdamperdc@delicious.com,Female,170.160.2.121
482,Ailina,Yerbury,ayerburydd@dyndns.org,Female,106.183.147.148
483,Belicia,Escalante,bescalantede@delicious.com,Female,248.1.22.108
484,Halimeda,Bartoszewicz,hbartoszewiczdf@stanford.edu,Female,35.223.70.27
485,Phillipe,Rizzelli,prizzellidg@unc.edu,Male,207.204.46.113
486,Kellia,Cutajar,kcutajardh@google.co.jp,Female,161.123.156.196
487,Hamil,Giorio,hgioriodi@biblegateway.com,Male,120.122.184.59
488,Thurstan,Milton,tmiltondj@squidoo.com,Male,84.90.208.12
489,Toddie,Laughton,tlaughtondk@vkontakte.ru,Male,115.112.226.139
490,Chick,Hymus,chymusdl@wordpress.com,Male,184.213.65.254
491,Van,Loosmore,vloosmoredm@wikispaces.com,Male,141.58.236.113
492,Ramsay,Dewing,rdewingdn@cisco.com,Male,214.228.231.21
493,Garald,Downe,gdownedo@miibeian.gov.cn,Male,62.228.116.194
494,Fax,Poulton,fpoultondp@over-blog.com,Male,204.196.241.203
495,Shannen,Andreuzzi,sandreuzzidq@dropbox.com,Female,44.216.66.155
496,Nert,Camidge,ncamidgedr@indiatimes.com,Female,210.156.41.192
497,Millicent,Basson,mbassonds@de.vu,Female,37.147.90.214
498,Vivianne,Keyser,vkeyserdt@cloudflare.com,Female,240.171.179.208
499,Gino,Lilie,gliliedu@wikia.com,Male,251.249.214.137
500,Christoffer,Coxhell,ccoxhelldv@woothemes.com,Male,224.133.12.153
501,Otho,Rosendahl,orosendahldw@soundcloud.com,Male,141.180.65.183
502,Kliment,Glavis,kglavisdx@rakuten.co.jp,Male,99.169.13.244
503,Damita,Phant,dphantdy@mapquest.com,Female,36.180.158.244
504,Missie,Hillan,mhillandz@independent.co.uk,Female,31.216.86.218
505,Rollins,Cristofano,rcristofanoe0@yellowbook.com,Male,161.72.210.42
506,Ardra,Stidston,astidstone1@alibaba.com,Female,196.116.143.15
507,Mercy,Flippelli,mflippellie2@hhs.gov,Female,52.50.95.202
508,Mireille,Episcopio,mepiscopioe3@utexas.edu,Female,5.58.75.94
509,Chucho,Beer,cbeere4@artisteer.com,Male,126.24.172.220
510,Carmelita,Horlick,chorlicke5@mozilla.org,Female,11.77.54.183
511,Loydie,Thompstone,lthompstonee6@miibeian.gov.cn,Male,62.203.19.62
512,Freddy,Teall,ftealle7@fda.gov,Male,222.19.187.215
513,Rochella,Croke,rcrokee8@ow.ly,Female,247.108.67.204
514,Parry,Luckwell,pluckwelle9@arstechnica.com,Male,71.101.155.26
515,Kiley,Staresmeare,kstaresmeareea@newyorker.com,Female,217.34.166.208
516,Gale,Leeburn,gleeburneb@deviantart.com,Female,128.97.136.95
517,Eddie,Sinkins,esinkinsec@weebly.com,Female,70.171.111.134
518,Norris,Cardno,ncardnoed@tuttocitta.it,Male,42.95.130.42
519,Regen,Exter,rexteree@chronoengine.com,Male,250.71.45.190
520,Ossie,Licciardi,olicciardief@ebay.com,Male,186.120.110.14
521,Graehme,Ginley,gginleyeg@taobao.com,Male,64.25.220.110
522,Darsie,Giuron,dgiuroneh@arstechnica.com,Female,20.118.50.89
523,Yovonnda,Couroy,ycouroyei@unc.edu,Female,27.167.44.75
524,Nicholle,Massel,nmasselej@surveymonkey.com,Female,119.146.148.189
525,Kristi,Liptrot,kliptrotek@ameblo.jp,Female,41.43.81.76
526,Sidnee,Wife,swifeel@wikipedia.org,Male,118.247.224.122
527,Guillema,Glennie,gglennieem@geocities.jp,Female,217.213.122.233
528,Claudia,Greedier,cgreedieren@sourceforge.net,Female,130.3.146.52
529,Zandra,Tregonna,ztregonnaeo@123-reg.co.uk,Female,232.255.137.149
530,Briant,Scouse,bscouseep@facebook.com,Male,2.149.62.182
531,Lily,Beiderbeck,lbeiderbeckeq@apple.com,Female,255.210.71.225
532,Andie,Barens,abarenser@unc.edu,Male,160.110.105.33
533,Josias,Gebuhr,jgebuhres@slideshare.net,Male,218.131.164.141
534,Emili,Wickardt,ewickardtet@devhub.com,Female,82.49.251.137
535,Gawen,Goom,ggoomeu@fc2.com,Male,219.36.77.98
536,Raul,Derbyshire,rderbyshireev@slate.com,Male,207.238.126.96
537,Elle,Obert,eobertew@mtv.com,Female,12.143.196.235
538,Jorrie,Chelley,jchelleyex@huffingtonpost.com,Female,224.146.199.45
539,Arleen,Bantham,abanthamey@cpanel.net,Female,234.15.162.249
540,Lammond,Dalwood,ldalwoodez@creativecommons.org,Male,205.67.144.84
541,Timothee,Gentner,tgentnerf0@goo.ne.jp,Male,220.220.156.114
542,Genni,McAuley,gmcauleyf1@yandex.ru,Female,22.54.187.128
543,Josiah,Werendell,jwerendellf2@foxnews.com,Male,253.152.157.156
544,Rinaldo,Eyam,reyamf3@t-online.de,Male,175.68.126.190
545,Thia,Gauch,tgauchf4@hp.com,Female,175.31.186.76
546,Kaiser,Lacoste,klacostef5@privacy.gov.au,Male,244.21.12.144
547,Celka,Hafford,chaffordf6@php.net,Female,127.175.18.176
548,Sylvan,Behne,sbehnef7@bloglines.com,Male,89.11.147.179
549,Walsh,Tregensoe,wtregensoef8@ted.com,Male,89.50.59.169
550,Corabella,Tuckey,ctuckeyf9@hhs.gov,Female,24.18.62.109
551,Olly,Bowgen,obowgenfa@rediff.com,Female,230.83.189.65
552,Neal,Barkworth,nbarkworthfb@biglobe.ne.jp,Male,251.88.151.12
553,Kirstyn,Batchelor,kbatchelorfc@reddit.com,Female,17.214.53.83
554,Phelia,Lineham,plinehamfd@globo.com,Female,156.64.175.102
555,Jacquelyn,Bortoli,jbortolife@sciencedirect.com,Female,252.220.27.107
556,Danita,Smickle,dsmickleff@yolasite.com,Female,197.109.210.52
557,Eugen,Cancellor,ecancellorfg@aol.com,Male,223.84.173.253
558,Iorgos,Bissiker,ibissikerfh@google.com,Male,248.173.13.179
559,Win,Robak,wrobakfi@narod.ru,Male,24.113.151.125
560,Chet,Starrs,cstarrsfj@ifeng.com,Male,84.11.41.93
561,Hill,Frantz,hfrantzfk@xing.com,Male,161.193.86.8
562,Julian,Boom,jboomfl@biblegateway.com,Male,240.183.124.239
563,Simona,Gethouse,sgethousefm@squidoo.com,Female,49.185.144.200
564,Coral,Elecum,celecumfn@spiegel.de,Female,93.74.41.215
565,Gladi,Orto,gortofo@wp.com,Female,158.51.71.174
566,Audry,Zoane,azoanefp@auda.org.au,Female,9.195.124.135
567,Ariana,Sallows,asallowsfq@mail.ru,Female,140.162.24.31
568,Lorilyn,Ritter,lritterfr@hatena.ne.jp,Female,2.177.77.246
569,Jessee,McCaster,jmccasterfs@bluehost.com,Male,187.230.255.197
570,Kasey,Lunny,klunnyft@cocolog-nifty.com,Female,134.99.174.120
571,Ina,Pigden,ipigdenfu@google.ca,Female,143.151.205.241
572,Cleve,Gumey,cgumeyfv@google.ru,Male,1.171.136.69
573,Toiboid,Edgerton,tedgertonfw@dmoz.org,Male,157.224.220.218
574,Remy,Duffin,rduffinfx@uiuc.edu,Female,3.25.46.215
575,Rene,Renforth,rrenforthfy@elegantthemes.com,Male,44.192.42.83
576,Sigvard,Shovlar,sshovlarfz@sfgate.com,Male,48.234.102.1
577,Daune,Lorraway,dlorrawayg0@google.com.au,Female,221.157.9.196
578,Moira,Frankum,mfrankumg1@123-reg.co.uk,Female,249.102.49.85
579,Julian,Lachaize,jlachaizeg2@mac.com,Male,10.133.95.55
580,Samson,Yakebovich,syakebovichg3@hugedomains.com,Male,128.142.101.238
581,Hoebart,Woolnough,hwoolnoughg4@aboutads.info,Male,104.127.229.227
582,Arne,Shafto,ashaftog5@seesaa.net,Male,14.112.39.220
583,Judah,MacGilfoyle,jmacgilfoyleg6@ted.com,Male,19.20.122.155
584,Casey,Houliston,choulistong7@fastcompany.com,Male,132.70.97.73
585,Bettine,Vankin,bvanking8@wordpress.com,Female,99.204.47.187
586,Olav,Schafer,oschaferg9@wordpress.org,Male,188.142.133.163
587,Malachi,Caccavella,mcaccavellaga@oakley.com,Male,57.155.49.178
588,Travis,Creevy,tcreevygb@cornell.edu,Male,49.178.223.32
589,Therese,Winear,twineargc@imdb.com,Female,231.185.130.244
590,Sergei,Jantot,sjantotgd@abc.net.au,Male,68.228.143.98
591,Lamont,Dubock,ldubockge@businessweek.com,Male,51.231.141.20
592,Lindsey,Loads,lloadsgf@goodreads.com,Male,27.184.103.55
593,Marcos,Stannus,mstannusgg@squarespace.com,Male,207.139.44.252
594,Kiah,Fydo,kfydogh@bluehost.com,Female,215.21.215.146
595,Tome,Kennealy,tkennealygi@engadget.com,Male,42.96.254.230
596,Taber,Upex,tupexgj@sbwire.com,Male,121.214.120.165
597,Meredeth,Eastham,measthamgk@accuweather.com,Male,2.230.181.159
598,Fidelio,Bathow,fbathowgl@mediafire.com,Male,191.59.214.207
599,Shoshanna,Saffen,ssaffengm@hugedomains.com,Female,140.224.193.184
600,Matty,Kennefick,mkennefickgn@163.com,Female,118.39.200.160
601,Nancee,Humphrey,nhumphreygo@weibo.com,Female,24.194.147.121
602,Agnola,Tomasik,atomasikgp@issuu.com,Female,58.202.228.183
603,Carlos,Insworth,cinsworthgq@huffingtonpost.com,Male,223.62.242.68
604,Franz,Bulman,fbulmangr@drupal.org,Male,29.196.140.179
605,Jade,Beahan,jbeahangs@skype.com,Female,36.70.110.118
606,Stephie,Jiras,sjirasgt@comsenz.com,Female,56.149.9.227
607,Cinda,Izhaky,cizhakygu@drupal.org,Female,108.186.158.205
608,Terence,Simonin,tsimoningv@eepurl.com,Male,129.78.247.200
609,Pasquale,Bullers,pbullersgw@tinypic.com,Male,0.7.231.22
610,Montague,Bly,mblygx@dailymail.co.uk,Male,29.10.53.97
611,Robby,Maghull,rmaghullgy@noaa.gov,Male,179.241.255.199
612,Garry,Guthrum,gguthrumgz@kickstarter.com,Male,207.128.172.11
613,Ross,Aiston,raistonh0@github.com,Male,18.238.168.69
614,Henrieta,Brownsey,hbrownseyh1@dedecms.com,Female,90.181.129.175
615,Baxy,Stopher,bstopherh2@cdbaby.com,Male,209.169.10.214
616,Inger,Floodgate,ifloodgateh3@mlb.com,Male,189.60.250.108
617,Bordy,Buckberry,bbuckberryh4@yahoo.com,Male,60.239.182.108
618,Romeo,Clewes,rclewesh5@artisteer.com,Male,90.103.195.37
619,Alfie,Caffery,acafferyh6@hp.com,Female,197.230.255.18
620,Franny,Caukill,fcaukillh7@salon.com,Male,193.243.131.33
621,Rae,Faulconer,rfaulconerh8@sphinn.com,Female,167.76.136.29
622,Bram,Simeoli,bsimeolih9@ocn.ne.jp,Male,203.253.253.7
623,Rebeca,Wickett,rwickettha@163.com,Female,195.27.102.248
624,Jordanna,Melonby,jmelonbyhb@vimeo.com,Female,197.177.225.49
625,Jordon,Keston,jkestonhc@t-online.de,Male,19.223.247.203
626,Paten,Millthorpe,pmillthorpehd@cam.ac.uk,Male,137.78.127.81
627,Beverley,Petyanin,bpetyaninhe@ca.gov,Female,237.19.103.32
628,Ives,Ogdahl,iogdahlhf@photobucket.com,Male,16.242.139.91
629,Panchito,Leahy,pleahyhg@facebook.com,Male,63.10.185.84
630,Kass,Moulden,kmouldenhh@uiuc.edu,Female,0.125.164.47
631,Howie,Duffet,hduffethi@nydailynews.com,Male,224.253.102.79
632,Darcy,Durek,ddurekhj@diigo.com,Male,168.153.6.181
633,Sol,Silk,ssilkhk@foxnews.com,Male,169.133.80.202
634,Honey,Guinery,hguineryhl@hp.com,Female,30.70.218.182
635,Dev,Wynne,dwynnehm@godaddy.com,Male,103.2.31.163
636,Stanton,Ferriere,sferrierehn@topsy.com,Male,8.212.46.23
637,Hadleigh,Blinde,hblindeho@studiopress.com,Male,179.187.18.86
638,Evan,Petrillo,epetrillohp@is.gd,Male,227.77.134.8
639,Derrick,Backshaw,dbackshawhq@squidoo.com,Male,94.253.31.66
640,Addy,Munkton,amunktonhr@digg.com,Female,173.73.149.1
641,Jay,Fleming,jfleminghs@ifeng.com,Male,107.225.62.90
642,Padgett,Quye,pquyeht@netvibes.com,Male,251.224.6.248
643,Ross,Pengilley,rpengilleyhu@google.fr,Male,55.62.23.198
644,Grayce,Lavallin,glavallinhv@toplist.cz,Female,243.104.29.175
645,Sheridan,Finlason,sfinlasonhw@wikipedia.org,Male,179.87.217.111
646,Ivett,Allsopp,iallsopphx@bandcamp.com,Female,149.4.166.200
647,Agosto,Albisser,aalbisserhy@tinyurl.com,Male,219.41.240.223
648,Enrika,Brinkler,ebrinklerhz@reverbnation.com,Female,108.128.166.71
649,Sher,Abson,sabsoni0@oakley.com,Female,242.59.135.119
650,Dodi,Fishpond,dfishpondi1@joomla.org,Female,105.42.92.145
651,Cathie,Dockrill,cdockrilli2@yahoo.com,Female,142.102.241.233
652,Sawyere,Carragher,scarragheri3@aol.com,Male,254.153.195.174
653,Myrlene,Slack,mslacki4@yahoo.co.jp,Female,3.38.211.120
654,Yehudi,Perring,yperringi5@msu.edu,Male,29.30.180.88
655,Niall,Ferrige,nferrigei6@twitter.com,Male,81.156.191.129
656,Manolo,Tickle,mticklei7@google.com.au,Male,67.109.227.1
657,Penelopa,Norvill,pnorvilli8@liveinternet.ru,Female,40.62.184.164
658,Marve,Dimitriou,mdimitrioui9@spotify.com,Male,171.49.166.69
659,Jill,Trahair,jtrahairia@privacy.gov.au,Female,13.56.10.10
660,Joshua,Casoni,jcasoniib@symantec.com,Male,49.11.34.226
661,Lorelle,Mulrenan,lmulrenanic@washington.edu,Female,244.252.222.147
662,Tyrus,Noseworthy,tnoseworthyid@comcast.net,Male,228.118.154.7
663,Godfree,Annable,gannableie@cisco.com,Male,33.218.124.246
664,Barney,Brundell,bbrundellif@huffingtonpost.com,Male,26.245.116.175
665,Joshua,Bemlott,jbemlottig@tinypic.com,Male,56.145.83.47
666,Sebastiano,Simmonite,ssimmoniteih@oracle.com,Male,66.209.122.14
667,Mariellen,Yanin,myaninii@fda.gov,Female,209.194.0.73
668,Horatio,Gillyatt,hgillyattij@xing.com,Male,131.152.65.179
669,Danny,Edgar,dedgarik@facebook.com,Female,63.12.46.118
670,Carmelle,Tilne,ctilneil@cnbc.com,Female,115.17.78.109
671,Fania,Dillestone,fdillestoneim@360.cn,Female,26.53.199.132
672,Murry,Roycroft,mroycroftin@github.io,Male,208.122.101.215
673,Hort,Jellyman,hjellymanio@so-net.ne.jp,Male,96.90.227.78
674,Travus,Judgkins,tjudgkinsip@miitbeian.gov.cn,Male,61.23.183.110
675,Mariya,Woffenden,mwoffendeniq@auda.org.au,Female,23.111.173.169
676,Chicky,Vince,cvinceir@smh.com.au,Male,74.149.249.245
677,Lin,Setterington,lsetteringtonis@examiner.com,Male,136.141.71.114
678,Lucienne,Lewis,llewisit@hugedomains.com,Female,58.167.23.106
679,Bail,Matijevic,bmatijeviciu@constantcontact.com,Male,140.136.57.92
680,Zita,Thompstone,zthompstoneiv@typepad.com,Female,4.148.169.253
681,Storm,MacCumeskey,smaccumeskeyiw@wikispaces.com,Female,237.156.85.183
682,Neale,Nisen,nnisenix@ucla.edu,Male,16.129.235.20
683,Guillermo,Saul,gsauliy@ustream.tv,Male,36.3.70.171
684,Balduin,Durtnel,bdurtneliz@ca.gov,Male,6.103.15.124
685,Cris,Zelake,czelakej0@epa.gov,Female,103.169.101.49
686,Zelda,Stonehouse,zstonehousej1@aol.com,Female,101.104.135.44
687,Brandi,Umpleby,bumplebyj2@aboutads.info,Female,159.220.50.7
688,Ellwood,Lippitt,elippittj3@nih.gov,Male,221.133.231.81
689,Cristie,Sincock,csincockj4@ucoz.ru,Female,135.244.168.78
690,Norrie,Goneau,ngoneauj5@tiny.cc,Female,197.99.104.9
691,Hallsy,Moulsdale,hmoulsdalej6@independent.co.uk,Male,139.90.11.39
692,Egbert,Triner,etrinerj7@newyorker.com,Male,114.71.83.220
693,Gretchen,Domoni,gdomonij8@yahoo.co.jp,Female,251.87.38.38
694,Morgen,Schwandner,mschwandnerj9@buzzfeed.com,Female,189.25.85.112
695,Melania,Wyleman,mwylemanja@pcworld.com,Female,121.148.120.236
696,Lynsey,Foyster,lfoysterjb@state.tx.us,Female,153.250.152.252
697,Pammi,Bonome,pbonomejc@admin.ch,Female,31.248.249.206
698,Elli,Chawkley,echawkleyjd@mapquest.com,Female,184.131.200.242
699,Lev,Charon,lcharonje@webeden.co.uk,Male,89.81.154.207
700,Amos,Olivie,aoliviejf@quantcast.com,Male,137.145.22.177
701,Corinne,Gilks,cgilksjg@surveymonkey.com,Female,6.241.212.36
702,Lisbeth,Massey,lmasseyjh@weibo.com,Female,12.78.102.183
703,Mannie,Rookes,mrookesji@typepad.com,Male,199.69.206.45
704,Pierre,Keyhoe,pkeyhoejj@un.org,Male,208.109.45.48
705,Ginevra,Westmancoat,gwestmancoatjk@e-recht24.de,Female,219.185.59.11
706,Katuscha,Filipowicz,kfilipowiczjl@elegantthemes.com,Female,196.88.110.83
707,Kristi,McKomb,kmckombjm@google.com,Female,15.176.183.239
708,Silas,Sandbatch,ssandbatchjn@slashdot.org,Male,225.59.137.209
709,Booth,Hagstone,bhagstonejo@prlog.org,Male,84.133.49.179
710,Gordie,Hussey,ghusseyjp@wsj.com,Male,70.126.19.15
711,Minor,Bemwell,mbemwelljq@uiuc.edu,Male,26.4.127.30
712,Franky,Matula,fmatulajr@guardian.co.uk,Male,160.236.20.208
713,Ezra,Dunster,edunsterjs@nbcnews.com,Male,79.34.141.59
714,Charlie,Hallex,challexjt@shop-pro.jp,Male,119.50.128.164
715,Roxie,Aimer,raimerju@posterous.com,Female,243.4.47.199
716,Dino,Christaeas,dchristaeasjv@etsy.com,Male,3.209.91.102
717,Emily,Reynish,ereynishjw@w3.org,Female,196.29.43.142
718,Ansley,Scranedge,ascranedgejx@tinyurl.com,Female,39.124.0.148
719,Emanuele,Iacopini,eiacopinijy@t-online.de,Male,214.53.249.103
720,Averyl,Northidge,anorthidgejz@goo.gl,Female,52.220.97.190
721,Alana,Windaybank,awindaybankk0@rakuten.co.jp,Female,190.189.221.33
722,Peta,Winks,pwinksk1@webmd.com,Female,209.204.3.182
723,Tanhya,Millard,tmillardk2@chicagotribune.com,Female,193.11.152.111
724,Florance,Niesel,fnieselk3@4shared.com,Female,181.182.45.148
725,Hi,Staddom,hstaddomk4@amazon.com,Male,199.56.112.121
726,Mychal,Olive,molivek5@cbsnews.com,Male,197.38.226.152
727,Nataline,Razzell,nrazzellk6@si.edu,Female,17.220.191.125
728,Jessica,Gardiner,jgardinerk7@joomla.org,Female,206.117.19.205
729,Roi,Le Monnier,rlemonnierk8@ucsd.edu,Male,117.125.3.71
730,Jared,Herity,jherityk9@freewebs.com,Male,125.94.248.155
731,Leda,Chrismas,lchrismaska@list-manage.com,Female,107.229.203.238
732,Toby,Lettsom,tlettsomkb@nhs.uk,Male,229.36.165.135
733,Ileane,Welham,iwelhamkc@nationalgeographic.com,Female,158.49.196.216
734,Lucio,Viccars,lviccarskd@artisteer.com,Male,205.139.151.143
735,Analise,MacAdie,amacadieke@techcrunch.com,Female,201.138.66.120
736,Harrietta,Shatford,hshatfordkf@simplemachines.org,Female,168.247.129.152
737,Annaliese,Stickland,asticklandkg@liveinternet.ru,Female,90.97.186.55
738,Thomas,Franzen,tfranzenkh@paginegialle.it,Male,45.223.250.102
739,Yule,Housbey,yhousbeyki@blogs.com,Male,72.142.10.109
740,Stillman,Reneke,srenekekj@oracle.com,Male,231.193.161.216
741,Roley,Qusklay,rqusklaykk@live.com,Male,186.225.2.68
742,Don,Cary,dcarykl@google.de,Male,97.18.101.2
743,Rafferty,Pittson,rpittsonkm@google.de,Male,238.140.39.77
744,Reginald,Finessy,rfinessykn@huffingtonpost.com,Male,33.65.168.114
745,Emera,MacAdie,emacadieko@odnoklassniki.ru,Female,85.166.43.147
746,Ezmeralda,Skin,eskinkp@senate.gov,Female,23.170.254.98
747,Klement,Espinoy,kespinoykq@msu.edu,Male,154.120.213.35
748,Vitoria,Garcia,vgarciakr@phpbb.com,Female,72.1.105.155
749,Dorette,Pendrey,dpendreyks@geocities.com,Female,9.214.202.15
750,Marthe,Coolbear,mcoolbearkt@amazon.co.uk,Female,204.73.38.190
751,Gustaf,Longmaid,glongmaidku@miitbeian.gov.cn,Male,7.63.149.250
752,Rosalia,Acome,racomekv@weebly.com,Female,149.98.199.203
753,Maribel,West-Frimley,mwestfrimleykw@springer.com,Female,234.57.112.41
754,Joyous,Galley,jgalleykx@wikispaces.com,Female,158.22.13.192
755,Brittani,Marlor,bmarlorky@digg.com,Female,234.72.254.136
756,Bell,Ayre,bayrekz@hao123.com,Female,251.159.3.137
757,Marvin,Gayforth,mgayforthl0@unesco.org,Male,42.191.49.16
758,Florry,Benbough,fbenboughl1@sourceforge.net,Female,196.5.154.21
759,David,Grouen,dgrouenl2@google.de,Male,228.127.8.135
760,Abbie,Giorgietto,agiorgiettol3@apache.org,Male,44.47.145.164
761,Kass,Charlewood,kcharlewoodl4@home.pl,Female,42.207.32.216
762,Briant,Lawlan,blawlanl5@uiuc.edu,Male,155.164.153.225
763,Rebbecca,Neath,rneathl6@bloglovin.com,Female,70.227.170.103
764,Terrie,Ruske,truskel7@paypal.com,Female,184.55.154.100
765,Maurise,Mostyn,mmostynl8@gnu.org,Male,165.90.140.226
766,Archie,Gooke,agookel9@e-recht24.de,Male,93.192.14.7
767,Yolanthe,Godleman,ygodlemanla@yolasite.com,Female,19.238.193.117
768,Beatrice,Bettison,bbettisonlb@census.gov,Female,101.65.49.15
769,Harwilll,Tawn,htawnlc@hhs.gov,Male,197.123.26.175
770,Allistir,Leckie,aleckield@wisc.edu,Male,233.53.229.29
771,Barrett,Cleveley,bcleveleyle@google.com.hk,Male,1.149.87.84
772,Susy,Farady,sfaradylf@bigcartel.com,Female,207.119.11.110
773,Stan,Spadeck,sspadecklg@cdbaby.com,Male,157.78.174.215
774,Etheline,Gatward,egatwardlh@amazonaws.com,Female,230.197.118.239
775,Jarid,McConnal,jmcconnalli@census.gov,Male,129.150.46.83
776,Neall,Spellward,nspellwardlj@comsenz.com,Male,209.189.86.124
777,Bonny,Abrahm,babrahmlk@irs.gov,Female,73.10.17.135
778,Kata,Goldney,kgoldneyll@redcross.org,Female,210.47.179.228
779,Web,Hamstead,whamsteadlm@biglobe.ne.jp,Male,204.34.143.68
780,Corena,Cone,cconeln@youtu.be,Female,83.93.90.0
781,Jed,Mockett,jmockettlo@huffingtonpost.com,Male,89.64.156.173
782,Bert,Cursey,bcurseylp@last.fm,Male,207.209.75.36
783,Janenna,Tickel,jtickellq@nifty.com,Female,86.245.58.219
784,Gordon,Archbould,garchbouldlr@reference.com,Male,30.113.241.144
785,Ax,Rawlison,arawlisonls@live.com,Male,43.192.197.14
786,Moyna,Vynehall,mvynehalllt@ovh.net,Female,154.253.156.200
787,Benjie,O'Cassidy,bocassidylu@ibm.com,Male,66.120.209.143
788,Pren,Grishin,pgrishinlv@paypal.com,Male,164.85.56.167
789,Lynelle,Robecon,lrobeconlw@vinaora.com,Female,217.172.9.48
790,Maryjane,Mennear,mmennearlx@cdbaby.com,Female,47.44.233.185
791,Tracy,Barnsley,tbarnsleyly@printfriendly.com,Female,99.228.144.26
792,Sutton,MacArthur,smacarthurlz@bing.com,Male,198.137.86.71
793,Corbin,Corradino,ccorradinom0@dailymotion.com,Male,203.151.67.192
794,Renata,Busse,rbussem1@prnewswire.com,Female,93.245.95.92
795,Jeremie,Brahm,jbrahmm2@indiatimes.com,Male,50.100.54.34
796,Phoebe,Dimitrijevic,pdimitrijevicm3@pen.io,Female,31.48.22.240
797,Abel,Earngy,aearngym4@about.me,Male,254.133.165.30
798,Gabriel,Huett,ghuettm5@mashable.com,Male,208.173.171.206
799,Sharia,Momery,smomerym6@parallels.com,Female,219.218.132.47
800,Ernst,Brunton,ebruntonm7@go.com,Male,100.162.203.242
801,Gaelan,Wymer,gwymerm8@woothemes.com,Male,153.115.122.36
802,Dorry,Garvie,dgarviem9@deliciousdays.com,Female,59.177.139.68
803,Mic,Rippen,mrippenma@who.int,Male,108.210.214.0
804,Kennith,Durante,kdurantemb@domainmarket.com,Male,223.155.75.29
805,Marc,Mufford,mmuffordmc@xinhuanet.com,Male,245.38.123.251
806,Dallis,Scrivens,dscrivensmd@nydailynews.com,Male,139.118.211.152
807,Hamil,Poller,hpollerme@yolasite.com,Male,21.254.82.32
808,Rodolph,Easson,reassonmf@discovery.com,Male,32.184.8.173
809,Lizbeth,Fruin,lfruinmg@surveymonkey.com,Female,48.210.167.153
810,Lamond,Aikett,laikettmh@people.com.cn,Male,186.27.34.101
811,Helenelizabeth,Mumford,hmumfordmi@mtv.com,Female,69.248.184.240
812,George,Fawdrie,gfawdriemj@slideshare.net,Female,95.164.149.80
813,Reeta,Pasterfield,rpasterfieldmk@apache.org,Female,88.7.179.187
814,Jerrie,Fosserd,jfosserdml@state.tx.us,Male,41.88.111.187
815,Tomasine,Yukhin,tyukhinmm@gizmodo.com,Female,12.37.228.126
816,Kaylil,Strotton,kstrottonmn@house.gov,Female,67.211.146.35
817,Silva,Brimming,sbrimmingmo@economist.com,Female,163.209.119.235
818,Geordie,Maxstead,gmaxsteadmp@fema.gov,Male,152.116.51.229
819,Etan,Brydie,ebrydiemq@google.nl,Male,79.110.206.167
820,Tracey,Antognazzi,tantognazzimr@nature.com,Male,11.37.63.86
821,Ralph,Curtis,rcurtisms@mtv.com,Male,75.100.133.139
822,Claudian,Stallworth,cstallworthmt@zdnet.com,Male,239.233.146.146
823,Henryetta,Remer,hremermu@samsung.com,Female,124.155.174.182
824,Juanita,Kosiada,jkosiadamv@addthis.com,Female,71.200.242.54
825,Levin,Moralee,lmoraleemw@google.com,Male,178.77.27.216
826,Shanan,Gulc,sgulcmx@soup.io,Male,87.70.247.235
827,Corena,Aleswell,caleswellmy@usgs.gov,Female,145.234.255.208
828,Kellby,Bonfield,kbonfieldmz@bbb.org,Male,9.170.170.160
829,Marlow,Cogdell,mcogdelln0@va.gov,Male,90.203.47.239
830,Vivie,Ebbitt,vebbittn1@google.pl,Female,102.90.40.17
831,Emmanuel,Apthorpe,eapthorpen2@nifty.com,Male,24.92.234.23
832,Marwin,Lynskey,mlynskeyn3@surveymonkey.com,Male,193.119.43.134
833,Rick,Espine,respinen4@tripadvisor.com,Male,33.147.173.56
834,Joanne,Sones,jsonesn5@barnesandnoble.com,Female,53.217.51.124
835,Robinson,Cuncarr,rcuncarrn6@naver.com,Male,124.50.186.163
836,Garnet,Lamy,glamyn7@guardian.co.uk,Female,7.203.84.194
837,Taryn,Whitchurch,twhitchurchn8@cyberchimps.com,Female,159.232.122.230
838,Roosevelt,Brogden,rbrogdenn9@livejournal.com,Male,176.44.231.213
839,Davita,Christoffe,dchristoffena@biglobe.ne.jp,Female,96.238.199.155
840,Morganne,Merrill,mmerrillnb@guardian.co.uk,Female,56.198.255.166
841,Shelli,Capey,scapeync@livejournal.com,Female,208.231.212.206
842,Dallon,Le Quesne,dlequesnend@dot.gov,Male,252.201.118.247
843,Sherri,Rigby,srigbyne@123-reg.co.uk,Female,157.69.73.239
844,Haley,Cleare,hclearenf@statcounter.com,Female,113.36.42.83
845,Dominick,Churchill,dchurchillng@chronoengine.com,Male,26.133.144.241
846,Trev,Roath,troathnh@cafepress.com,Male,72.67.91.4
847,Jerrylee,Tantum,jtantumni@com.com,Female,70.249.77.162
848,Karil,Liff,kliffnj@1688.com,Female,5.63.195.148
849,Fionna,Nairn,fnairnnk@state.tx.us,Female,114.107.14.162
850,Lynsey,Winscum,lwinscumnl@histats.com,Female,132.152.174.81
851,Devonna,Dutson,ddutsonnm@mtv.com,Female,50.63.172.75
852,Roley,Saul,rsaulnn@engadget.com,Male,19.14.21.114
853,Isaac,Deeves,ideevesno@mit.edu,Male,133.97.158.224
854,Luella,Lovett,llovettnp@woothemes.com,Female,139.169.8.16
855,Constanta,Shelvey,cshelveynq@boston.com,Female,18.200.107.199
856,Sigismondo,Rathborne,srathbornenr@omniture.com,Male,245.111.132.190
857,Shelley,Eyden,seydenns@oakley.com,Male,120.217.35.43
858,Dominik,Leyrroyd,dleyrroydnt@yahoo.co.jp,Male,129.188.95.10
859,Lidia,Minelli,lminellinu@cbslocal.com,Female,95.201.15.149
860,Lawrence,Grimestone,lgrimestonenv@360.cn,Male,98.215.60.245
861,Ericka,Wivell,ewivellnw@ustream.tv,Female,176.237.104.179
862,Suzi,Vain,svainnx@nps.gov,Female,155.180.182.83
863,Emerson,Gurnee,egurneeny@livejournal.com,Male,126.71.226.42
864,Shannan,McBeith,smcbeithnz@arizona.edu,Male,125.14.102.19
865,Nil,Body,nbodyo0@ft.com,Male,54.208.119.57
866,Doloritas,Bister,dbistero1@japanpost.jp,Female,39.145.115.77
867,Adela,Guillart,aguillarto2@i2i.jp,Female,35.105.88.145
868,Mile,Harvison,mharvisono3@godaddy.com,Male,192.251.14.9
869,Danette,Branwhite,dbranwhiteo4@woothemes.com,Female,230.99.191.219
870,Malorie,Jertz,mjertzo5@nydailynews.com,Female,213.8.13.253
871,Bondie,Telezhkin,btelezhkino6@businessinsider.com,Male,118.220.0.218
872,Hal,Oakwood,hoakwoodo7@cbc.ca,Male,62.141.221.48
873,Cal,Riehm,criehmo8@cnn.com,Female,185.154.224.238
874,Patin,Hakes,phakeso9@sourceforge.net,Male,63.203.113.207
875,Babs,Leas,bleasoa@slashdot.org,Female,25.60.34.116
876,Linda,Goulbourne,lgoulbourneob@slashdot.org,Female,52.189.53.240
877,Auberta,Dacombe,adacombeoc@independent.co.uk,Female,240.121.41.115
878,Warde,Winkle,wwinkleod@thetimes.co.uk,Male,122.84.197.124
879,Moore,Rendell,mrendelloe@creativecommons.org,Male,153.61.242.106
880,Carmen,Turbill,cturbillof@webnode.com,Female,95.136.217.24
881,Arabella,Laux,alauxog@nasa.gov,Female,175.132.38.156
882,Martita,MacAloren,mmacalorenoh@yellowpages.com,Female,220.93.100.8
883,Ray,Littlecote,rlittlecoteoi@amazon.co.uk,Male,215.1.53.58
884,Jarret,Giannotti,jgiannottioj@imageshack.us,Male,194.185.98.183
885,Nicolina,Habercham,nhaberchamok@netscape.com,Female,220.214.132.76
886,Maiga,Leynton,mleyntonol@examiner.com,Female,84.0.88.26
887,Bethany,Kopelman,bkopelmanom@lulu.com,Female,247.180.59.115
888,Murvyn,Adlard,madlardon@marriott.com,Male,159.190.242.155
889,Gilemette,Edginton,gedgintonoo@tripadvisor.com,Female,103.219.108.154
890,Bendicty,Lossman,blossmanop@ft.com,Male,36.177.80.194
891,Rudolf,Philipot,rphilipotoq@hostgator.com,Male,31.87.75.69
892,Johnna,Oris,jorisor@github.io,Female,24.80.119.159
893,Selig,Cobbe,scobbeos@vimeo.com,Male,17.154.131.0
894,Willdon,Touson,wtousonot@4shared.com,Male,198.124.167.181
895,Findlay,Austwick,faustwickou@spotify.com,Male,132.173.24.114
896,Joy,Hamper,jhamperov@ow.ly,Female,58.89.5.188
897,Felita,De Roeck,fderoeckow@wsj.com,Female,176.234.183.6
898,Neila,Auger,naugerox@hexun.com,Female,161.109.35.77
899,Heywood,Houchen,hhouchenoy@comsenz.com,Male,119.77.180.198
900,Verena,Pebworth,vpebworthoz@wufoo.com,Female,205.249.166.152
901,Sybil,Marquiss,smarquissp0@163.com,Female,55.204.83.79
902,Jeffy,Worsalls,jworsallsp1@imgur.com,Male,171.159.28.52
903,Libbie,Yablsley,lyablsleyp2@flavors.me,Female,251.208.252.80
904,Nannie,Truran,ntruranp3@ebay.com,Female,213.151.237.98
905,Billie,Jowling,bjowlingp4@google.ca,Male,182.16.31.168
906,Bernice,Stroyan,bstroyanp5@cnn.com,Female,193.89.62.110
907,Arlen,Hammant,ahammantp6@networksolutions.com,Male,28.76.234.217
908,Thoma,Attle,tattlep7@ycombinator.com,Male,123.165.31.50
909,Thedric,Serot,tserotp8@ifeng.com,Male,91.54.114.193
910,Cullin,Geldeard,cgeldeardp9@google.com.au,Male,75.203.169.44
911,Evan,Odgaard,eodgaardpa@cafepress.com,Male,186.46.112.212
912,Rafa,Laurie,rlauriepb@nba.com,Female,37.150.118.163
913,Maury,Cherrie,mcherriepc@weebly.com,Male,150.120.22.236
914,Car,Delort,cdelortpd@weebly.com,Male,128.92.176.45
915,Lane,Druhan,ldruhanpe@dailymail.co.uk,Male,221.172.88.98
916,Eleonore,Simone,esimonepf@tinyurl.com,Female,76.122.201.87
917,Lonnie,Arbor,larborpg@house.gov,Male,160.149.192.118
918,Tawnya,Hagart,thagartph@msu.edu,Female,177.46.29.10
919,Druci,Huglin,dhuglinpi@cnet.com,Female,47.201.194.19
920,Irwin,Woodgate,iwoodgatepj@lulu.com,Male,184.142.133.210
921,Bernadina,Sidnell,bsidnellpk@flickr.com,Female,124.183.155.115
922,Sophey,Benham,sbenhampl@earthlink.net,Female,11.80.41.224
923,Eulalie,Merrgen,emerrgenpm@hao123.com,Female,121.74.207.229
924,Nikoletta,Causer,ncauserpn@earthlink.net,Female,178.162.179.195
925,Morgun,Doubleday,mdoubledaypo@google.cn,Male,41.165.145.96
926,Brnaba,Toffanini,btoffaninipp@fotki.com,Male,84.194.58.14
927,Phil,Demeter,pdemeterpq@etsy.com,Male,206.99.187.115
928,Tobit,Barrabeale,tbarrabealepr@so-net.ne.jp,Male,76.255.169.147
929,Ruthanne,Richards,rrichardsps@alibaba.com,Female,13.222.41.205
930,Yanaton,Firmin,yfirminpt@indiatimes.com,Male,76.117.93.73
931,Randi,Beeke,rbeekepu@tamu.edu,Female,44.26.117.165
932,Haley,Marre,hmarrepv@people.com.cn,Male,184.137.208.103
933,Reynold,Milstead,rmilsteadpw@whitehouse.gov,Male,68.175.157.23
934,Celene,Godart,cgodartpx@clickbank.net,Female,143.24.209.218
935,Bobbie,Bevington,bbevingtonpy@census.gov,Female,177.150.59.254
936,Myrtia,Cadd,mcaddpz@rediff.com,Female,110.72.228.96
937,Sig,Huzzey,shuzzeyq0@alibaba.com,Male,190.62.24.5
938,Osbourne,MacCauley,omaccauleyq1@techcrunch.com,Male,215.135.35.73
939,Wilhelmine,Beecker,wbeeckerq2@tripod.com,Female,70.79.56.132
940,Elizabeth,Bannell,ebannellq3@naver.com,Female,248.78.194.189
941,Edna,Ribey,eribeyq4@lycos.com,Female,170.86.173.30
942,Jefferey,Steen,jsteenq5@ycombinator.com,Male,162.107.147.237
943,Allix,Habens,ahabensq6@ocn.ne.jp,Female,164.61.214.191
944,Kathryn,Gunda,kgundaq7@gnu.org,Female,16.79.199.3
945,Donaugh,Skeete,dskeeteq8@sciencedirect.com,Male,229.191.242.11
946,Pauletta,Howie,phowieq9@surveymonkey.com,Female,2.140.59.1
947,Abey,Pitherick,apitherickqa@hhs.gov,Male,156.211.87.81
948,Jason,Jerrolt,jjerroltqb@devhub.com,Male,138.93.167.181
949,Shantee,Abramino,sabraminoqc@mediafire.com,Female,196.23.189.75
950,Morissa,Brunke,mbrunkeqd@usgs.gov,Female,140.250.160.18
951,Davida,Snazel,dsnazelqe@soup.io,Female,142.20.78.209
952,Charyl,Bestiman,cbestimanqf@paginegialle.it,Female,109.2.97.92
953,Bronnie,Milch,bmilchqg@imageshack.us,Male,125.108.166.93
954,Clayton,Longstaff,clongstaffqh@marketwatch.com,Male,3.146.142.96
955,Aldrich,Shanks,ashanksqi@csmonitor.com,Male,178.53.199.197
956,Hedda,Jeannon,hjeannonqj@amazonaws.com,Female,150.233.157.99
957,Guinna,Course,gcourseqk@acquirethisname.com,Female,106.121.222.206
958,Flin,Martini,fmartiniql@cocolog-nifty.com,Male,43.133.189.66
959,Gilli,Jonah,gjonahqm@qq.com,Female,20.49.195.177
960,Eldin,Wraith,ewraithqn@rakuten.co.jp,Male,67.98.78.94
961,Olympe,Camplin,ocamplinqo@hostgator.com,Female,155.52.82.154
962,Bondy,Benedick,bbenedickqp@miitbeian.gov.cn,Male,180.125.121.133
963,Kori,Wheeliker,kwheelikerqq@163.com,Female,64.214.143.229
964,Lyndy,De Bruijne,ldebruijneqr@loc.gov,Female,128.32.203.197
965,Cathrin,Geyton,cgeytonqs@reverbnation.com,Female,210.117.237.11
966,Odo,Addinall,oaddinallqt@dot.gov,Male,11.255.64.29
967,Curtice,Robel,crobelqu@umn.edu,Male,20.224.205.37
968,Lindsay,Playfoot,lplayfootqv@google.ca,Female,34.186.29.48
969,Jarid,Comazzo,jcomazzoqw@taobao.com,Male,63.56.143.250
970,Rene,Calverley,rcalverleyqx@stumbleupon.com,Female,240.241.109.235
971,Dael,Buzin,dbuzinqy@ebay.co.uk,Male,14.143.67.77
972,Jeniffer,Huggett,jhuggettqz@google.co.uk,Female,44.83.94.179
973,Quinlan,Malzard,qmalzardr0@spotify.com,Male,212.100.194.197
974,Walker,Wharmby,wwharmbyr1@whitehouse.gov,Male,145.247.154.236
975,Whitney,Fenby,wfenbyr2@google.fr,Female,90.249.209.90
976,Web,Lassey,wlasseyr3@imageshack.us,Male,2.157.197.185
977,Latrina,Fearfull,lfearfullr4@japanpost.jp,Female,161.39.216.181
978,Odille,Piesold,opiesoldr5@naver.com,Female,97.70.166.6
979,Marissa,Avard,mavardr6@w3.org,Female,136.219.72.107
980,Jesus,Bowller,jbowllerr7@stumbleupon.com,Male,225.113.247.175
981,Basile,Achrameev,bachrameevr8@technorati.com,Male,215.86.216.60
982,Bryna,Wheal,bwhealr9@storify.com,Female,28.72.21.51
983,Beale,Howick,bhowickra@jigsy.com,Male,139.228.207.210
984,Fitzgerald,Shorrock,fshorrockrb@usda.gov,Male,69.137.233.15
985,Dido,Strotone,dstrotonerc@prweb.com,Female,124.154.156.202
986,Val,Somerville,vsomervillerd@washington.edu,Female,113.77.221.199
987,Frasier,MacNaughton,fmacnaughtonre@aboutads.info,Male,0.42.231.91
988,Lenard,Alpe,lalperf@instagram.com,Male,98.219.196.230
989,Steffie,Etchells,setchellsrg@washingtonpost.com,Female,144.127.149.231
990,Barnie,Thurgood,bthurgoodrh@state.gov,Male,41.2.85.112
991,Horton,Illing,hillingri@ehow.com,Male,205.3.235.47
992,Carmela,Christol,cchristolrj@sohu.com,Female,230.138.124.252
993,Evanne,Purkis,epurkisrk@cbc.ca,Female,147.138.99.97
994,Julina,Gaythorpe,jgaythorperl@admin.ch,Female,97.181.37.232
995,Zared,Caras,zcarasrm@jimdo.com,Male,23.191.112.142
996,Verine,Rosenblath,vrosenblathrn@bloomberg.com,Female,86.44.196.127
997,Cello,Mayger,cmaygerro@admin.ch,Male,65.120.236.131
998,Randi,Dacks,rdacksrp@g.co,Female,86.162.134.18
999,Orazio,Sheekey,osheekeyrq@t.co,Male,34.3.234.249
1000,Sibby,Grovier,sgrovierrr@chron.com,Female,17.141.39.73
